C:\Users\netoj\Documents\CICLO 3\sprint 3\mision-tic-grupo-10-58-my-garage\MyGarage\src\main\java\com\grupo10\mygarage\MygarageApplication.java
C:\Users\netoj\Documents\CICLO 3\sprint 3\mision-tic-grupo-10-58-my-garage\MyGarage\src\main\java\com\grupo10\mygarage\services\VehiculoService.java
C:\Users\netoj\Documents\CICLO 3\sprint 3\mision-tic-grupo-10-58-my-garage\MyGarage\src\main\java\com\grupo10\mygarage\models\Plaza.java
C:\Users\netoj\Documents\CICLO 3\sprint 3\mision-tic-grupo-10-58-my-garage\MyGarage\src\main\java\com\grupo10\mygarage\models\Alquiler.java
C:\Users\netoj\Documents\CICLO 3\sprint 3\mision-tic-grupo-10-58-my-garage\MyGarage\src\main\java\com\grupo10\mygarage\dao\PlazaDao.java
C:\Users\netoj\Documents\CICLO 3\sprint 3\mision-tic-grupo-10-58-my-garage\MyGarage\src\main\java\com\grupo10\mygarage\services\serviceimp\PlazaServiceImp.java
C:\Users\netoj\Documents\CICLO 3\sprint 3\mision-tic-grupo-10-58-my-garage\MyGarage\src\main\java\com\grupo10\mygarage\dao\UsuarioDao.java
C:\Users\netoj\Documents\CICLO 3\sprint 3\mision-tic-grupo-10-58-my-garage\MyGarage\src\main\java\com\grupo10\mygarage\ServletInitializer.java
C:\Users\netoj\Documents\CICLO 3\sprint 3\mision-tic-grupo-10-58-my-garage\MyGarage\src\main\java\com\grupo10\mygarage\services\PlazaService.java
C:\Users\netoj\Documents\CICLO 3\sprint 3\mision-tic-grupo-10-58-my-garage\MyGarage\src\main\java\com\grupo10\mygarage\services\serviceimp\AlquilerServiceImp.java
C:\Users\netoj\Documents\CICLO 3\sprint 3\mision-tic-grupo-10-58-my-garage\MyGarage\src\main\java\com\grupo10\mygarage\models\Vehiculo.java
C:\Users\netoj\Documents\CICLO 3\sprint 3\mision-tic-grupo-10-58-my-garage\MyGarage\src\main\java\com\grupo10\mygarage\services\AlquilerService.java
C:\Users\netoj\Documents\CICLO 3\sprint 3\mision-tic-grupo-10-58-my-garage\MyGarage\src\main\java\com\grupo10\mygarage\services\serviceimp\UsuarioServiceImp.java
C:\Users\netoj\Documents\CICLO 3\sprint 3\mision-tic-grupo-10-58-my-garage\MyGarage\src\main\java\com\grupo10\mygarage\dao\AlquilerDao.java
C:\Users\netoj\Documents\CICLO 3\sprint 3\mision-tic-grupo-10-58-my-garage\MyGarage\src\main\java\com\grupo10\mygarage\models\Usuario.java
C:\Users\netoj\Documents\CICLO 3\sprint 3\mision-tic-grupo-10-58-my-garage\MyGarage\src\main\java\com\grupo10\mygarage\dao\VehiculoDao.java
C:\Users\netoj\Documents\CICLO 3\sprint 3\mision-tic-grupo-10-58-my-garage\MyGarage\src\main\java\com\grupo10\mygarage\services\UsuarioService.java
C:\Users\netoj\Documents\CICLO 3\sprint 3\mision-tic-grupo-10-58-my-garage\MyGarage\src\main\java\com\grupo10\mygarage\services\serviceimp\VehiculoServiceImp.java
